[
  {
    "namePhone": "iPhone12ProMax",
    "price": 50000,
    "imageUrl": "https://i8.rozetka.ua/goods/20300856/apple_iphone_12_pro_max_256gb_silver_images_20300856026.jpg",
    "vendor_code": "1",
    "color": "black"
  },
  {
    "namePhone": "iPhone12Pro",
    "price": 40000,
    "imageUrl": "https://i2.rozetka.ua/goods/20300079/apple_iphone_12_pro_512gb_gold_images_20300079656.jpg",
    "vendor_code": "2",
    "color": "black"
  },
  {
    "namePhone": "iPhone12",
    "price": 30000,
    "imageUrl": "https://i2.rozetka.ua/goods/20301354/apple_iphone_12_64gb_black_images_20301354626.jpg",
    "vendor_code": "3",
    "color": "green"
  },

  {
    "namePhone": "GalaxyS10",
    "price": 10000,
    "imageUrl": "https://i2.rozetka.ua/goods/11052552/samsung_galaxy_s10_6_128_gb_black_sm_g973fzkdsek_images_11052552435.jpg",
    "vendor_code": "4",
    "color": "black"
  },
  {
    "namePhone": "GalaxyS20",
    "price": 23000,
    "imageUrl": "https://i8.rozetka.ua/goods/16848966/samsung_galaxy_s20_red_sm_g980fzrdsek_images_16848966345.jpg",
    "vendor_code": "5",
    "color": "red"
  },
  {
    "namePhone": "GalaxyNote20",
    "price": 30000,
    "imageUrl": "https://i8.rozetka.ua/goods/19423126/samsung_sm_n980fzggsek_images_19423126291.jpg",
    "vendor_code": "6",
    "color": "black"
  },
  {
    "namePhone": "HTC_U_Play",
    "price": 4200,
    "imageUrl": "https://i2.rozetka.ua/goods/19245035/235028233_images_19245035071.jpg",
    "vendor_code": "7",
    "color": "Brilliant Black"
  },
  {
    "namePhone": "HTC 10",
    "price": 3200,
    "imageUrl": "https://i2.rozetka.ua/goods/18083356/210274813_images_18083356321.jpg",
    "vendor_code": "8",
    "color": "Silver"
  },
  {
    "namePhone": "Nova 5T",
    "price": 5000,
    "imageUrl": "https://i8.rozetka.ua/goods/15218483/huawei_nova_5t_crush_blue_images_15218483911.jpg",
    "vendor_code": "9",
    "color": "Crush Blue"
  },
  {
    "namePhone": "Huawei P40",
    "price": 24500,
    "imageUrl": "https://i2.rozetka.ua/goods/17516703/huawei_p40_pro_8_256gb_grey_images_17516703355.png",
    "vendor_code": "10",
    "color": "black"
  },
  {
    "namePhone": "Huawei P30 Pro",
    "price": 17500,
    "imageUrl": "https://i2.rozetka.ua/goods/11475346/huawei_p30_pro_6_128_black_images_11475346856.jpg",
    "vendor_code": "11",
    "color": "black"
  },
  {
    "namePhone": "Huawei P Smart 2021",
    "price": 5500,
    "imageUrl": "https://i2.rozetka.ua/goods/20477890/huawei_p_smart_2021_128gb_gold_images_20477890541.png",
    "vendor_code": "12",
    "color": "black"
  }
]

